<svg id="down" xmlns="http://www.w3.org/2000/svg" width="12" height="12" viewBox="0 0 12 12">
  <rect id="Rectangle_62" data-name="Rectangle 62" width="12" height="12" fill="#fff"/>
  <path id="Icon_awesome-chevron-down" data-name="Icon awesome-chevron-down" d="M5.587,15.331.579,10.323a.618.618,0,0,1,0-.875l.584-.584a.618.618,0,0,1,.874,0l3.988,3.969,3.988-3.969a.618.618,0,0,1,.874,0l.584.584a.618.618,0,0,1,0,.875L6.462,15.331A.619.619,0,0,1,5.587,15.331Z" transform="translate(-0.255 -5.988)"/>
</svg>
