<svg id="Icon_ionic-ios-arrow-back" data-name="Icon ionic-ios-arrow-back" xmlns="http://www.w3.org/2000/svg" width="5.069" height="8.866" viewBox="0 0 5.069 8.866">
  <path id="Icon_ionic-ios-arrow-back-2" data-name="Icon ionic-ios-arrow-back" d="M12.779,10.625l3.355-3.352a.634.634,0,1,0-.9-.895l-3.8,3.8a.632.632,0,0,0-.018.874l3.816,3.824a.634.634,0,1,0,.9-.895Z" transform="translate(-11.251 -6.194)"/>
</svg>
